…
Several examples are given, this can be used as base to continue selecting the data you require.

First, we show how to get the relevés from one survey and collect the data:

```{r examples_recordings}
recording_heischraal2012 <- get_inboveg_recordings(con, 
                                      survey_name = "MILKLIM_Heischraal2012",
                                      collect = TRUE)
```

```{r}
recording_heischraal2012
#> # A tibble: 3,288 x 11
#>    Name  RecordingGivid UserReference LayerCode CoverCode OrignalName ScientificName
#>    <chr> <chr>          <chr>         <chr>     <chr>     <chr>       <chr>         
#>  1 MILK~ IV20120816113~ HS_1001       M         5         Rhytidiade~ Rhytidiadelph~
#>  2 MILK~ IV20120816113~ HS_1001       M         5         Pseudoscle~ Pseudosclerop~
#>  3 MILK~ IV20120816113~ HS_1001       K         90        Juncus acu~ Juncus acutif~
#>  4 MILK~ IV20120816113~ HS_1001       K         90        Nardus str~ Nardus strict~
#>  5 MILK~ IV20120816113~ HS_1001       K         90        Potentilla~ Potentilla er~
#>  6 MILK~ IV20120816113~ HS_1001       K         90        Anthoxanth~ Anthoxanthum ~
#>  7 MILK~ IV20120816113~ HS_1001       K         90        Molinia ca~ Molinia caeru~
#>  8 MILK~ IV20120816113~ HS_1001       K         90        Lysimachia~ Lysimachia vu~
#>  9 MILK~ IV20120816113~ HS_1001       K         90        Luzula mul~ Luzula multif~
#>  10 MILK~ IV20120816113~ HS_1001       K         90        Carex pilu~ Carex pilulif~
#>  # ... with 3,278 more rows, and 4 more variables: PhenologyCode <chr>,
#>  #   CoverageCode <chr>, PctValue <dbl>, RecordingScale <chr>
```
…
