How to retrieve data from the INBOVEG database • inbodb
…
Get information of all surveys. This time we will not use collect = TRUE, which will return a lazy query:

allsurveys <- get_inboveg_survey(con)
class(allsurveys)
#> [1] "tbl_Microsoft SQL Server" "tbl_dbi"                 
#> [3] "tbl_sql"                  "tbl_lazy"                
#> [5] "tbl"

If only a part of the survey name is known, you can make use of wildcards such as %.

partsurveys <- get_inboveg_survey(con, 
                              survey_name = "%MILKLIM%",
                              collect = TRUE)
partsurveys
#> # A tibble: 28 x 5
#>       Id Name              Description                        Owner  creator    
#>    <int> <chr>             <chr>                              <chr>  <chr>      
#>  1     4 MILKLIM_Alopecur~ Standplaatsonderzoek graslanden b~ MILKL~ maud_raman 
#>  2     5 MILKLIM_WZ_Aalst~ Opnamen van PQ's in regio Aalst e~ MILKL~ floris_van~
#>  3     6 MILKLIM_Hei(schr~ PQ's in kader van onderzoek naar ~ MILKL~ floris_van~
#>  4     7 MILKLIM_Heide     Standplaatsonderzoek heide         MILKL~ jan_wouters
#>  5     8 MILKLIM_W&Z_Leie~ Evaluatie maaibeheer Leiebermen g~ MILKL~ maud_raman 
#>  6     9 MILKLIM_W&Z_Gera~ Vegetatieopnames in het kader van~ MILKL~ luc_vanher~
#>  7    10 MILKLIM_Heischra~ Vegetatieopnames in het kader van~ MILKL~ cecile_herr
#>  8    11 MILKLIM_W&Z_Varia Losse opnamen in het kader van kl~ MILKL~ floris_van~
#>  9    12 MILKLIM_W&Z_Berm~ Ecologische opvolging van bermveg~ MILKL~ els_debie  
#> 10    14 MILKLIM_W&Z_Oeve~ Oeveropnamen langs de Leie ter ev~ Maud ~ luc_vanher~
#> # ... with 18 more rows
…
all_header_info <- get_inboveg_header(con)

Recording information

The function get_inboveg_recordings queries the INBOVEG database for relevé information (which species were recorded in which plots and in which vegetation layers with which cover) for one or more surveys.

Several examples are given, this can be used as base to continue selecting the data you require.

First, we show how to get the relevés from one survey and collect the data:

recording_heischraal2012 <- get_inboveg_recordings(con, 
                                      survey_name = "MILKLIM_Heischraal2012",
                                      collect = TRUE)
recording_heischraal2012
#> # A tibble: 3,288 x 11
#>    Name  RecordingGivid UserReference LayerCode CoverCode OrignalName
#>    <chr> <chr>          <chr>         <chr>     <chr>     <chr>      
#>  1 MILK~ IV20120816113~ HS_1001       M         5         Rhytidiade~
#>  2 MILK~ IV20120816113~ HS_1001       M         5         Pseudoscle~
#>  3 MILK~ IV20120816113~ HS_1001       K         90        Juncus acu~
#>  4 MILK~ IV20120816113~ HS_1001       K         90        Nardus str~
#>  5 MILK~ IV20120816113~ HS_1001       K         90        Potentilla~
#>  6 MILK~ IV20120816113~ HS_1001       K         90        Anthoxanth~
#>  7 MILK~ IV20120816113~ HS_1001       K         90        Molinia ca~
#>  8 MILK~ IV20120816113~ HS_1001       K         90        Lysimachia~
#>  9 MILK~ IV20120816113~ HS_1001       K         90        Luzula mul~
#> 10 MILK~ IV20120816113~ HS_1001       K         90        Carex pilu~
#> # ... with 3,278 more rows, and 5 more variables: ScientificName <chr>,
#> #   PhenologyCode <chr>, CoverageCode <chr>, PctValue <dbl>,
#> #   RecordingScale <chr>
…
