…
rodelijst_status <- get_taxonlijsten_lists(
  con,
  list = "%rode lijst%",
  collect = TRUE
)  %>%
  select(
    "Taxonlijst", "PublicatieJaar", "Criteria", "Validering",
    "Vaststelling"
  )
```

``` r

rodelijst_status
#> # A tibble: 26 × 5
#>    Taxonlijst                    PublicatieJaar Criteria Validering Vaststelling
#>    <chr>                                  <int> <chr>    <chr>      <chr>       
#>  1 Rode lijst van de Amfibieën             2013 IUCN     Gevalidee… Vastgesteld 
#>  2 Rode lijst van de Bladmossen            2017 IUCN     Gevalidee… Vastgesteld 
#>  3 Rode lijst van de Broedvogels           2016 IUCN     Gevalidee… Vastgesteld 
#>  4 Rode lijst van de Dagvlinders           2021 IUCN     Gevalidee… Vastgesteld 
#>  5 Rode lijst van de Dansvliegen           2001 Lokaal   Niet-geva… Niet-vastge…
#>  6 Rode lijst van de Doodhoutke…           2015 IUCN     Gevalidee… Vastgesteld 
#>  7 Rode lijst van de Hauwmossen            2017 IUCN     Gevalidee… Vastgesteld 
#>  8 Rode lijst van de Landslakken           2006 Lokaal   Niet-geva… Niet-vastge…
#>  9 Rode lijst van de Levermossen           2017 IUCN     Gevalidee… Vastgesteld 
#> 10 Rode lijst van de Libellen              2021 IUCN     Gevalidee… Vastgesteld 
#> # ℹ 16 more rows
```
…
habitat_fauna <- get_taxonlijsten_features(con, list = "%Habitattyp%fauna%")
```

Note that the function also returns taxonlists without features:

``` r

no_feature <- get_taxonlijsten_features(con, list = "%SBP%", collect = TRUE)
```

``` r

no_feature
#> # A tibble: 27 × 7
#>    Taxonlijst             PublicatieJaar Version KenmerkCode KenmerkBeschrijving
#>    <chr>                           <int> <chr>   <chr>       <chr>              
#>  1 SBP Akkervogels                  2021 latest  NA          NA                 
#>  2 SBP Beekprik, rivierd…           2017 latest  NA          NA                 
#>  3 SBP Bever                        2015 latest  NA          NA                 
#>  4 SBP Boomkikker                   2018 latest  NA          NA                 
#>  5 SBP Bruine kiekendief            2018 latest  NA          NA                 
#>  6 SBP Gladde slang                 2016 latest  NA          NA                 
#>  7 SBP Grauwe kiekendief            2015 latest  NA          NA                 
#>  8 SBP Grauwe klauwier              2017 latest  NA          NA                 
#>  9 SBP Grote modderkruip…           2020 latest  NA          NA                 
#> 10 SBP Hamster                      2015 latest  NA          NA                 
#> # ℹ 17 more rows
#> # ℹ 2 more variables: KenmerkwaardeCode <chr>, KenmerkwaardeBeschrijving <chr>
```
…
``` r

redlist_evolution
#> # A tibble: 75 × 6
#>    Lijst        Naamwet_interpretatie NaamNed_interpretatie `1996` `2011` `2021`
#>    <chr>        <chr>                 <chr>                 <chr>  <chr>  <chr> 
#>  1 Rode lijst … Aglais urticae        Kleine vos            LC     NT     EN    
#>  2 Rode lijst … Anthocharis cardamin… Oranjetipje           LC     LC     LC    
#>  3 Rode lijst … Apatura iris          Grote weerschijnvlin… EN     EN     LC    
#>  4 Rode lijst … Aphantopus hyperantus Koevinkje             LC     LC     LC    
#>  5 Rode lijst … Aporia crataegi       Groot geaderd witje   RE     RE     RE    
#>  6 Rode lijst … Araschnia levana      Landkaartje           LC     LC     LC    
#>  7 Rode lijst … Argynnis paphia       Keizersmantel         CR     LC     LC    
#>  8 Rode lijst … Aricia agestis        Bruin blauwtje        VU     LC     LC    
#>  9 Rode lijst … Callophrys rubi       Groentje              VU     VU     EN    
#> 10 Rode lijst … Carterocephalus pala… Bont dikkopje         VU     NT     VU    
#> # ℹ 65 more rows
```
…
