…
``` r

partsurveys <- get_inboveg_survey(
  con,
  survey_name = "%MILKLIM%",
  collect = TRUE
)
```

``` r

partsurveys
#> # A tibble: 31 × 5
#>       Id Name                                    Description       Owner creator
#>    <int> <chr>                                   <chr>             <chr> <chr>  
#>  1     4 MILKLIM_Alopecurion                     Standplaatsonder… MILK… maud_r…
#>  2     5 MILKLIM_WZ_AalstTeralfene               Opnamen van PQ's… MILK… floris…
#>  3     6 MILKLIM_Hei(schraal)herstel             PQ's in kader va… MILK… floris…
#>  4     7 MILKLIM_Heide                           Standplaatsonder… MILK… jan_wo…
#>  5     8 MILKLIM_W&Z_Leiebermen_2010_2013        Evaluatie maaibe… MILK… maud_r…
#>  6     9 MILKLIM_W&Z_Geraardsbergen              Vegetatieopnames… MILK… luc_va…
#>  7    10 MILKLIM_Heischraal2012                  Vegetatieopnames… MILK… cecile…
#>  8    11 MILKLIM_W&Z_Varia                       Losse opnamen in… MILK… floris…
#>  9    12 MILKLIM_W&Z_Bermen_AfleidingskanaalLeie Ecologische opvo… MILK… els_de…
#> 10    14 MILKLIM_W&Z_OeversLeie                  Oeveropnamen lan… Maud… luc_va…
#> # ℹ 21 more rows
```
…
``` r

recording_heischraal2012 <- get_inboveg_recording(
  con,
  survey_name = "MILKLIM_Heischraal2012",
  collect = TRUE
)
```

``` r

recording_heischraal2012
#> # A tibble: 3,288 × 13
#>    Name            RecordingGivid UserReference LayerCode CoverCode OriginalName
#>    <chr>           <chr>          <chr>         <chr>     <chr>     <chr>       
#>  1 MILKLIM_Heisch… IV20120816113… HS_1001       M         5         Rhytidiadel…
#>  2 MILKLIM_Heisch… IV20120816113… HS_1001       M         5         Pseudoscler…
#>  3 MILKLIM_Heisch… IV20120816113… HS_1001       K         90        Juncus acut…
#>  4 MILKLIM_Heisch… IV20120816113… HS_1001       K         90        Nardus stri…
#>  5 MILKLIM_Heisch… IV20120816113… HS_1001       K         90        Potentilla …
#>  6 MILKLIM_Heisch… IV20120816113… HS_1001       K         90        Anthoxanthu…
#>  7 MILKLIM_Heisch… IV20120816113… HS_1001       K         90        Molinia cae…
#>  8 MILKLIM_Heisch… IV20120816113… HS_1001       K         90        Lysimachia …
#>  9 MILKLIM_Heisch… IV20120816113… HS_1001       K         90        Luzula mult…
#> 10 MILKLIM_Heisch… IV20120816113… HS_1001       K         90        Carex pilul…
#> # ℹ 3,278 more rows
#> # ℹ 7 more variables: ScientificName <chr>, TaxonGroupCode <chr>,
#> #   PhenologyCode <chr>, Comment <chr>, CoverageCode <chr>, PctValue <dbl>,
#> #   RecordingScale <chr>
```
…
