How to retrieve data from the Meetnetten database • inbodb
…
The function get_meetnetten_schemes() gives an overview
per species group of all monitoring schemes included in Meetnetten and
the protocols that are applied in the monitoring schemes.

In most cases, a monitoring scheme is dedicated to one target species
and the monitoring scheme is named after the target species. In some
cases, a monitoring scheme has several target species, such as the
Algemene Broedvogelmonitoring Vlaanderen.

scheme_info <- get_meetnetten_schemes(con) %>%
  as_tibble()

scheme_info
#> # A tibble: 89 × 3
#>    species_group scheme        protocol                        
#>    <chr>         <chr>         <chr>                           
#>  1 amfibieën     Boomkikker    Amfibieën - Larven en metamorfen
#>  2 amfibieën     Boomkikker    Padden en kikkers - Roepkoren   
#>  3 amfibieën     Heikikker     Heikikker - DNA eitjes          
#>  4 amfibieën     Kamsalamander Amfibieën - Fuiken              
#>  5 amfibieën     Kamsalamander Amfibieën - Larven en metamorfen
#>  6 amfibieën     Knoflookpad   Amfibieën - Larven en metamorfen
#>  7 amfibieën     Knoflookpad   Knoflookpad - Roepkoren         
#>  8 amfibieën     Poelkikker    Padden en kikkers - Roepkoren   
#>  9 amfibieën     Poelkikker    Poelkikker - DNA larven         
#> 10 amfibieën     Rugstreeppad  Rugstreeppad - Transect         
#> # ℹ 79 more rows
…
Below we select all visits for the location Arenbergpolder of the
Argusvlinder monitoring scheme. We see that in most years the location
is counted 6 times per year as demanded by the monitoring
protocol.

visits <- get_meetnetten_visits(con,
                                scheme_name = "Argusvlinder",
                                collect = TRUE)

visits %>%
  filter(location == "Arenbergpolder") %>%
  select(location, visit_id, start_date,
         start_time, visit_status)
#> # A tibble: 33 × 5
#>    location       visit_id start_date start_time visit_status    
#>    <chr>             <int> <date>     <chr>      <chr>           
#>  1 Arenbergpolder      262 2016-05-13 09:55:00   Conform protocol
#>  2 Arenbergpolder      263 2016-05-21 13:45:00   Conform protocol
#>  3 Arenbergpolder      264 2016-05-26 13:45:00   Conform protocol
#>  4 Arenbergpolder      479 2016-07-20 08:50:00   Conform protocol
#>  5 Arenbergpolder      480 2016-08-09 09:25:00   Conform protocol
#>  6 Arenbergpolder      481 2016-08-17 12:05:00   Conform protocol
#>  7 Arenbergpolder     1517 2017-04-21 13:08:00   Conform protocol
#>  8 Arenbergpolder     1080 2017-05-10 15:38:00   Conform protocol
#>  9 Arenbergpolder     1518 2017-05-17 15:00:00   Conform protocol
#> 10 Arenbergpolder     1661 2017-08-02 12:47:00   Conform protocol
#> # ℹ 23 more rows
…
