How to retrieve data from the INBOVEG database • inbodb
…
class(allsurveys)
#> [1] "tbl_Microsoft SQL Server" "tbl_dbi"                 
#> [3] "tbl_sql"                  "tbl_lazy"                
#> [5] "tbl"

If only a part of the survey name is known, you can make use of
wildcards such as %.

partsurveys <- get_inboveg_survey(con,
                              survey_name = "%MILKLIM%",
                              collect = TRUE)

partsurveys
#> # A tibble: 29 × 5
#>       Id Name                                    Description       Owner creator
#>    <int> <chr>                                   <chr>             <chr> <chr>  
#>  1     4 MILKLIM_Alopecurion                     Standplaatsonder… MILK… maud_r…
#>  2     5 MILKLIM_WZ_AalstTeralfene               Opnamen van PQ's… MILK… floris…
#>  3     6 MILKLIM_Hei(schraal)herstel             PQ's in kader va… MILK… floris…
#>  4     7 MILKLIM_Heide                           Standplaatsonder… MILK… jan_wo…
#>  5     8 MILKLIM_W&Z_Leiebermen_2010_2013        Evaluatie maaibe… MILK… maud_r…
#>  6     9 MILKLIM_W&Z_Geraardsbergen              Vegetatieopnames… MILK… luc_va…
#>  7    10 MILKLIM_Heischraal2012                  Vegetatieopnames… MILK… cecile…
#>  8    11 MILKLIM_W&Z_Varia                       Losse opnamen in… MILK… floris…
#>  9    12 MILKLIM_W&Z_Bermen_AfleidingskanaalLeie Ecologische opvo… MILK… els_de…
#> 10    14 MILKLIM_W&Z_OeversLeie                  Oeveropnamen lan… Maud… luc_va…
#> # … with 19 more rows
…
Several examples are given, this can be used as base to continue
selecting the data you require.

First, we show how to get the relevés from one survey and collect the
data:

recording_heischraal2012 <- get_inboveg_recording(con,
                                      survey_name = "MILKLIM_Heischraal2012",
                                      collect = TRUE)

recording_heischraal2012
#> # A tibble: 3,288 × 11
#>    Name             RecordingGivid UserReference LayerCode CoverCode OrignalName
#>    <chr>            <chr>          <chr>         <chr>     <chr>     <chr>      
#>  1 MILKLIM_Heischr… IV20120816113… HS_1001       M         5         Rhytidiade…
#>  2 MILKLIM_Heischr… IV20120816113… HS_1001       M         5         Pseudoscle…
#>  3 MILKLIM_Heischr… IV20120816113… HS_1001       K         90        Juncus acu…
#>  4 MILKLIM_Heischr… IV20120816113… HS_1001       K         90        Nardus str…
#>  5 MILKLIM_Heischr… IV20120816113… HS_1001       K         90        Potentilla…
#>  6 MILKLIM_Heischr… IV20120816113… HS_1001       K         90        Anthoxanth…
#>  7 MILKLIM_Heischr… IV20120816113… HS_1001       K         90        Molinia ca…
#>  8 MILKLIM_Heischr… IV20120816113… HS_1001       K         90        Lysimachia…
#>  9 MILKLIM_Heischr… IV20120816113… HS_1001       K         90        Luzula mul…
#> 10 MILKLIM_Heischr… IV20120816113… HS_1001       K         90        Carex pilu…
#> # … with 3,278 more rows, and 5 more variables: ScientificName <chr>,
#> #   PhenologyCode <chr>, CoverageCode <chr>, PctValue <dbl>,
#> #   RecordingScale <chr>
…
